<svg id="Ebene_1" data-name="Ebene 1" xmlns="http://www.w3.org/2000/svg" xmlns:xlink="http://www.w3.org/1999/xlink" viewBox="0 0 335 148.57">
  <defs>
    <style>
      .cls-1 {
        fill: none;
      }

      .cls-2 {
        fill: #fff;
      }

      .cls-3 {
        clip-path: url(#clip-path);
      }

      .cls-4 {
        fill: #e2d1a5;
      }

      .cls-5 {
        fill: #ed6b06;
      }

      .cls-6 {
        fill: #6c6762;
      }
    </style>
    <clipPath id="clip-path">
      <rect class="cls-1" x="21.81" y="25.32" width="290.4" height="98.58"/>
    </clipPath>
  </defs>
  <rect class="cls-2" width="335" height="148.57"/>
  <g class="cls-3">
    <path class="cls-4" d="M135.83,77.43h7.45V57.08c0-7.53,3-15,10.61-15,6,0,7.21,6.26,7.21,11.25V77.43h7.44V57.08c0-7.53,3-15,10.61-15,6,0,7.21,6.26,7.21,11.25V77.43h7.44V51.53c0-8.79-3.72-15.44-14-15.44a14.4,14.4,0,0,0-12.52,7.84,11.94,11.94,0,0,0-11.48-7.84c-5.94,0-10,2.14-12.83,6.81h-.16V37h-7ZM120.62,61.75c0,6-3.88,10.61-11.24,10.61-3.41,0-7.53-2.29-7.53-6.57,0-7.13,10-7.76,14-7.76,1.59,0,3.17.16,4.75.16ZM98.92,46.23a19,19,0,0,1,11.72-4.12c7.45,0,10,3.56,10,10.53-2.93-.16-5-.16-7.92-.16-7.68,0-18.77,3.17-18.77,13.31,0,8.79,6.1,12.59,14.81,12.59a15,15,0,0,0,12.52-6.17h.16v5.22h7a63.17,63.17,0,0,1-.32-7.92V52.8c0-11-4.67-16.71-16.24-16.71a25.67,25.67,0,0,0-13.3,3.8ZM61.78,53.36c.55-5.23,3.56-11.25,10.85-11.25,6.41,0,10.06,5.07,10.06,11.25Zm25.74,15c-1.82,1.51-7.53,4-12.44,4A13.21,13.21,0,0,1,61.78,58.9H90.61c0-13-4.36-22.81-17.82-22.81-11.41,0-18.93,8.47-18.93,20.43,0,13.15,6.57,21.86,20.91,21.86a30.93,30.93,0,0,0,12.75-2.61ZM53.54,37H42.85V25.32L35.41,27.7V37H26.3v6h9.11v23.6c0,8.08,4.75,11.72,12.43,11.72a23.19,23.19,0,0,0,6.34-1.11V70.94a9.25,9.25,0,0,1-5.07,1.42c-3.41,0-6.26-2.53-6.26-7.2V43.06H53.54Z"/>
    <path class="cls-5" d="M180,97.37c.55-5.23,3.56-11.25,10.85-11.25,6.41,0,10.06,5.07,10.06,11.25Zm25.74,15a24,24,0,0,1-12.44,4A13.22,13.22,0,0,1,180,102.91h28.83c0-13-4.36-22.81-17.82-22.81-11.41,0-18.93,8.48-18.93,20.44,0,13.14,6.57,21.86,20.91,21.86a30.89,30.89,0,0,0,12.75-2.62ZM138,101.09c-.16-7.36,3-15,11.09-15s12,7.69,12,15.21c0,6.73-3.49,15-11.88,15-8,0-11.33-8.95-11.17-15.29m23.37,20.36h7.12V62.05H161V86.6h-.16c-2.3-3.72-6.34-6.5-13.38-6.5-11.73,0-17.43,9.59-17.43,20.44,0,11,5.15,21.86,17.35,21.86,7.2,0,11.8-3.65,13.78-6.66h.16Zm-43.33,0h7.45V81.05H118Zm-28.82-1.27c3.4,1.82,7.28,2.22,11.08,2.22,7.21,0,14.1-4,14.1-12.6,0-12.91-17.5-10.53-17.5-18.77,0-3.32,3.32-4.91,7.13-4.91a21.78,21.78,0,0,1,7.84,2.06l.63-6.49a31.12,31.12,0,0,0-9.27-1.59c-8,0-14.25,4-14.25,12.44,0,11.32,17.5,10.69,17.5,18.06,0,4.35-4.2,5.78-7.6,5.78a19.89,19.89,0,0,1-9.27-2.85Zm-38.65,1.27H58V102.76c0-9.83,3.8-16.64,12.28-16.64,6.49.4,8.55,5,8.55,14.42v20.91h7.45v-24c0-10.85-4.68-17.35-15.13-17.35-5.62,0-11,2.78-13.23,7.37h-.16V81.05h-7.2Zm-14.73,0h7.44V81.05H35.79Z"/>
    <path class="cls-6" d="M269.94,116.63h1.87v3.68a2.86,2.86,0,0,1-1.44.31c-2.76,0-3.63-2.56-3.63-4.48,0-3.32,2-4.46,3.5-4.46a4.34,4.34,0,0,1,2.2.66l.05-1a5.67,5.67,0,0,0-2.19-.51c-2.94,0-4.55,2.55-4.55,5.24,0,2,.9,5.44,4.58,5.44a4.92,4.92,0,0,0,2.41-.57v-5.16h-2.8Zm-12.64,4.76h.86v-9.24h0l4.4,9.24h1.2V110.92h-.87v9.3h0l-4.4-9.3H257.3Zm-3.33,0h.92V110.92H254Zm-8.9,0h.87v-9.24h0l4.4,9.24h1.19V110.92h-.86v9.3h0l-4.4-9.3h-1.2Zm-3.33,0h.93V110.92h-.93Zm-5.39-9.48h0l1.77,5.73h-3.61Zm-3.95,9.48h.93l.94-2.88h4.17l.91,2.88h1l-3.48-10.47h-1Zm-5.57-9.6H228c.66,0,2.05.12,2.05,1.84a1.91,1.91,0,0,1-2,2h-1.27Zm-.93,9.6h.93v-4.88H228c.75,0,1.06.35,1.39,1.29l1.27,3.59h1l-1.57-4.34a1.35,1.35,0,0,0-1.07-.9v0a2.35,2.35,0,0,0,2-2.53,2.52,2.52,0,0,0-2.76-2.67H225.9Zm-7.29-9.6H221v9.6H222v-9.6h2.43v-.87h-5.79Z"/>
    <path class="cls-6" d="M275.24,106.39h.86V97.15h0l4.4,9.24h1.2V95.92h-.87v9.3h0l-4.4-9.3h-1.19Zm-8.36-5.24c0-.82,0-4.47,2.7-4.47s2.7,3.65,2.7,4.47,0,4.47-2.7,4.47-2.7-3.64-2.7-4.47m-1,0c0,.92,0,5.34,3.69,5.34s3.69-4.42,3.69-5.34,0-5.34-3.69-5.34-3.69,4.43-3.69,5.34M263,106.39h.92V95.92H263Zm-7.29-9.6h2.43v9.6h.92v-9.6h2.43v-.87h-5.78Zm-3.82.12h0l1.77,5.73h-3.61Zm-3.95,9.48h.92l.95-2.88H254l.91,2.88h1L252.4,95.92h-1Zm-2.33,0h.93V95.92h-.93Zm-7.41-9.6H239c3.52,0,3.77,2.73,3.77,4.36,0,2.63-1.28,4.37-3.6,4.37h-1Zm-.93,9.6h1.62c3.38,0,4.86-2.34,4.86-5.39,0-3.39-1.63-5.08-5.12-5.08h-1.36Zm-6.66,0h4.6v-.87h-3.67v-4.14h3.34v-.87h-3.34V96.79h3.51v-.87h-4.44Zm-11.1,0h.87v-9.6h0l3.1,9.6h.71l3.09-9.6h0v9.6h.87V95.92h-1.42L223.87,105h0l-2.91-9.09h-1.42Z"/>
    <path class="cls-6" d="M309.41,86.63h1.87v3.68a2.86,2.86,0,0,1-1.44.31c-2.76,0-3.63-2.56-3.63-4.48,0-3.32,2-4.46,3.5-4.46a4.34,4.34,0,0,1,2.2.66l0-1a5.67,5.67,0,0,0-2.19-.51c-2.94,0-4.55,2.55-4.55,5.24,0,2,.9,5.44,4.58,5.44a4.92,4.92,0,0,0,2.41-.57V85.76h-2.8Zm-12.65,4.76h.87V82.15h0l4.4,9.24h1.2V80.92h-.87v9.3h0l-4.4-9.3h-1.2Zm-3.33,0h.93V80.92h-.93Zm-8.34,0H286v-5h4.08v5H291V80.92h-.93v4.59H286V80.92h-.93Zm-2.22-1.23a3.54,3.54,0,0,1-1.77.46c-1.2,0-3.42-.85-3.42-4.5,0-4.09,2.7-4.44,3.44-4.44a3.15,3.15,0,0,1,1.78.53l.05-1a4.46,4.46,0,0,0-1.76-.35c-3.22,0-4.5,2.58-4.5,5.28s1.34,5.4,4.44,5.4a5,5,0,0,0,1.79-.33Zm-10.95-8.25h0l1.77,5.73H270.1Zm-4,9.48h.93l.94-2.88H274l.92,2.88h1l-3.48-10.47h-1Zm-7.35-5.24c0-.82,0-4.47,2.7-4.47s2.7,3.65,2.7,4.47,0,4.47-2.7,4.47-2.7-3.64-2.7-4.47m-1,0c0,.92,0,5.34,3.69,5.34S267,87.07,267,86.15s0-5.34-3.69-5.34-3.69,4.43-3.69,5.34m-1.79,4a3.54,3.54,0,0,1-1.77.46c-1.2,0-3.42-.85-3.42-4.5,0-4.09,2.7-4.44,3.44-4.44a3.15,3.15,0,0,1,1.78.53l.05-1a4.46,4.46,0,0,0-1.76-.35c-3.22,0-4.49,2.58-4.49,5.28s1.33,5.4,4.43,5.4a5,5,0,0,0,1.79-.33ZM240.9,91.39h.87v-9.6h0l3.1,9.6h.71l3.09-9.6h0v9.6h.87V80.92h-1.42L245.26,90h0l-2.91-9.09H240.9Zm-5.39-9.48h0l1.77,5.73H233.7Zm-3.95,9.48h.93l.94-2.88h4.17l.91,2.88h1L236,80.92h-1Zm-5.66,0h4.6v-.87h-3.67V86.38h3.34v-.87h-3.34V81.79h3.51v-.87H225.9Zm-7.29-9.6H221v9.6H222v-9.6h2.43v-.87h-5.79Z"/>
  </g>
</svg>
